id,name,model_id:id,group_id:id,perm_read,perm_write,perm_create,perm_unlink
access_bind_account_owner,access_bind_account_owner,model_bind_account_owner,base.group_user,1,1,1,1
access_bind_account,access_bind_account,model_bind_account,base.group_user,1,1,1,1
access_bind_transaction,access_bind_transaction,model_bind_transaction,base.group_user,1,1,1,1